^C:\IT_SCHOOL\PROJECTS\LESSON_15\GROCERIES\GROCERIES\DEBUG\GROCERIES.OBJ
/OUT:"C:\IT_SCHOOL\PROJECTS\LESSON_15\GROCERIES\DEBUG\GROCERIES.EXE" /INCREMENTAL /NOLOGO KERNEL32.LIB USER32.LIB GDI32.LIB WINSPOOL.LIB COMDLG32.LIB ADVAPI32.LIB SHELL32.LIB OLE32.LIB OLEAUT32.LIB UUID.LIB ODBC32.LIB ODBCCP32.LIB /MANIFEST /MANIFESTUAC:"level='asInvoker' uiAccess='false'" /manifest:embed /DEBUG:FASTLINK /PDB:"C:\IT_SCHOOL\PROJECTS\LESSON_15\GROCERIES\DEBUG\GROCERIES.PDB" /SUBSYSTEM:CONSOLE /TLBID:1 /DYNAMICBASE /NXCOMPAT /IMPLIB:"C:\IT_SCHOOL\PROJECTS\LESSON_15\GROCERIES\DEBUG\GROCERIES.LIB" /MACHINE:X86 DEBUG\GROCERIES.OBJ
^C:\IT_SCHOOL\PROJECTS\LESSON_15\GROCERIES\GROCERIES\DEBUG\GROCERIES.OBJ|C:\IT_SCHOOL\PROJECTS\LESSON_15\GROCERIES\GROCERIES\DEBUG\PRODUCT.OBJ|C:\IT_SCHOOL\PROJECTS\LESSON_15\GROCERIES\GROCERIES\DEBUG\SHOPPINGLIST.OBJ
/OUT:"C:\IT_SCHOOL\PROJECTS\LESSON_15\GROCERIES\DEBUG\GROCERIES.EXE" /INCREMENTAL /NOLOGO KERNEL32.LIB USER32.LIB GDI32.LIB WINSPOOL.LIB COMDLG32.LIB ADVAPI32.LIB SHELL32.LIB OLE32.LIB OLEAUT32.LIB UUID.LIB ODBC32.LIB ODBCCP32.LIB /MANIFEST /MANIFESTUAC:"level='asInvoker' uiAccess='false'" /manifest:embed /DEBUG:FASTLINK /PDB:"C:\IT_SCHOOL\PROJECTS\LESSON_15\GROCERIES\DEBUG\GROCERIES.PDB" /SUBSYSTEM:CONSOLE /TLBID:1 /DYNAMICBASE /NXCOMPAT /IMPLIB:"C:\IT_SCHOOL\PROJECTS\LESSON_15\GROCERIES\DEBUG\GROCERIES.LIB" /MACHINE:X86 DEBUG\GROCERIES.OBJ
DEBUG\PRODUCT.OBJ
DEBUG\SHOPPINGLIST.OBJ
^C:\IT_SCHOOL\PROJECTS\LESSON_16\GROCERIES\GROCERIES\DEBUG\GROCERIES.OBJ|C:\IT_SCHOOL\PROJECTS\LESSON_16\GROCERIES\GROCERIES\DEBUG\PRODUCT.OBJ|C:\IT_SCHOOL\PROJECTS\LESSON_16\GROCERIES\GROCERIES\DEBUG\SHOPPINGLIST.OBJ
/OUT:"C:\IT_SCHOOL\PROJECTS\LESSON_16\GROCERIES\DEBUG\GROCERIES.EXE" /INCREMENTAL /NOLOGO KERNEL32.LIB USER32.LIB GDI32.LIB WINSPOOL.LIB COMDLG32.LIB ADVAPI32.LIB SHELL32.LIB OLE32.LIB OLEAUT32.LIB UUID.LIB ODBC32.LIB ODBCCP32.LIB /MANIFEST /MANIFESTUAC:"level='asInvoker' uiAccess='false'" /manifest:embed /DEBUG:FASTLINK /PDB:"C:\IT_SCHOOL\PROJECTS\LESSON_16\GROCERIES\DEBUG\GROCERIES.PDB" /SUBSYSTEM:CONSOLE /TLBID:1 /DYNAMICBASE /NXCOMPAT /IMPLIB:"C:\IT_SCHOOL\PROJECTS\LESSON_16\GROCERIES\DEBUG\GROCERIES.LIB" /MACHINE:X86 DEBUG\GROCERIES.OBJ
DEBUG\PRODUCT.OBJ
DEBUG\SHOPPINGLIST.OBJ
^C:\IT_SCHOOL\PROJECTS\LESSON_17\GROCERIES\GROCERIES\DEBUG\GROCERIES.OBJ|C:\IT_SCHOOL\PROJECTS\LESSON_17\GROCERIES\GROCERIES\DEBUG\PRODUCT.OBJ|C:\IT_SCHOOL\PROJECTS\LESSON_17\GROCERIES\GROCERIES\DEBUG\SHOPPINGLIST.OBJ
/OUT:"C:\IT_SCHOOL\PROJECTS\LESSON_17\GROCERIES\DEBUG\GROCERIES.EXE" /INCREMENTAL /NOLOGO KERNEL32.LIB USER32.LIB GDI32.LIB WINSPOOL.LIB COMDLG32.LIB ADVAPI32.LIB SHELL32.LIB OLE32.LIB OLEAUT32.LIB UUID.LIB ODBC32.LIB ODBCCP32.LIB /MANIFEST /MANIFESTUAC:"level='asInvoker' uiAccess='false'" /manifest:embed /DEBUG:FASTLINK /PDB:"C:\IT_SCHOOL\PROJECTS\LESSON_17\GROCERIES\DEBUG\GROCERIES.PDB" /SUBSYSTEM:CONSOLE /TLBID:1 /DYNAMICBASE /NXCOMPAT /IMPLIB:"C:\IT_SCHOOL\PROJECTS\LESSON_17\GROCERIES\DEBUG\GROCERIES.LIB" /MACHINE:X86 DEBUG\GROCERIES.OBJ
DEBUG\PRODUCT.OBJ
DEBUG\SHOPPINGLIST.OBJ
